{
  "user": {
    "name": "Jayde",
    "email": "Hunter_Crooks@hotmail.com",
    "role": "Advisor"
  },
  "investors": {
    "results": [
      {
        "id": "4f3cdd97-4c9c-4b86-b6c1-c700c1370e0c",
        "legal_account_name": "Bryant Nitzsche",
        "client_id":"e1a2f40c",
        "account_type": "Endowment",
        "gfs_fund": "GLASfunds, LP",
        "acct_number":"41987484",
        "bank_name":"Money Market Bank",
        "gfs_code": "L",
        "signers": [
          {
            "name": "Mandy Olson",
            "title": "Central Operations Representative",
            "email": "Francisco.Fisher@hotmail.com"
          }
        ]
      },
      {
        "id": "ec5f7fc0-5620-43e1-8327-5eb8eeccc6c7",
        "legal_account_name": "Felix Kuhic",
        "client_id":"98993847",
        "account_type": "Trust",
        "gfs_fund": "GLASfunds, SPC",
        "acct_number":"27564365",
        "bank_name":"Auto Loan Bank",
        "gfs_code": "S",
        "signers": [
          {
            "name": "Mandy Olson",
            "title": "Central Operations Representative",
            "email": "Francisco.Fisher@hotmail.com"
          },
          {
            "name": "Silvia Gulgowski",
            "title": "District Optimization Supervisor",
            "email": "Ona_Schiller90@gmail.com"
          }
        ]
      },
      {
        "id": "f1feff7a-16ca-47df-9ace-8f08894979b0",
        "legal_account_name": "Gretchen Thompson MD",
        "client_id":"a13a4f5c",
        "account_type": "IRA",
        "gfs_fund": "GLASfunds, LP",
        "acct_number":"13269377",
        "bank_name":"Credit Card Bank",
        "gfs_code": "L",
        "signers": [
          {
            "name": "Mandy Olson",
            "title": "Central Operations Representative",
            "email": "Francisco.Fisher@hotmail.com"
          },
          {
            "name": "Silvia Gulgowski",
            "title": "District Optimization Supervisor",
            "email": "Ona_Schiller90@gmail.com"
          },
          {
            "name": "Eunice Stokes",
            "title": "Customer Directives Associate",
            "email": "Carmela_Pouros77@gmail.com"
          }
        ]
      }
    ]
  },
  "funds": {
    "page_info": {
      "page": 1,
      "total_count": 17,
      "limit": 10,
      "total_pages": 2
  },
    "results": [
      {
        "id": "4263ac8d-357d-4d5a-9466-dcde5fecbca6",
        "investment_manager": "Elliott Associates",
        "fund_legal_name": "Elliott Associates, LP",
        "fund_type": "H",
        "fund_strategy_level_1": "Fund Style (Long / Short Value; Private Credit, Private Real Estate)",
        "next_close_date": "Wed Dec 15 2021 14:31:34 GMT-0300 (Brasilia Standard Time)",
        "spc_position": false,
        "lp_position": true,
        "mktg": "url"
      },
      {
        "id": "d62fa7cd-b9cd-45bc-8d75-5de064a0b1a6",
        "investment_manager": "Third Point LLC",
        "fund_legal_name": "Third Point Qualified Partners LP ",
        "fund_type": "H",
        "fund_strategy_level_1": "Multi-Srat, Long/Short Equities, Activism ",
        "next_close_date": "Sat Jun 18 2022 23:14:29 GMT-0300 (Brasilia Standard Time)",
        "spc_position": true,
        "lp_position": false,
        "mktg": "url"
      },
      {
        "id": "9d24a854-cfae-45bf-8c51-d8c83f982182",
        "investment_manager": "Davidson Kempner Capital Management",
        "fund_legal_name": "Davidson Kempner Partners",
        "fund_type": "H",
        "fund_strategy_level_1": "Activist Equity, Value Driven Credit",
        "next_close_date": "Sun Oct 23 2022 19:32:39 GMT-0300 (Brasilia Standard Time)",
        "spc_position": true,
        "lp_position": false,
        "mktg": "url"
      },
      {
        "id": "3c1a7af1-fe61-48dc-aabe-a016d99abb78",
        "investment_manager": "CBRE",
        "fund_legal_name": "CBRE US Core Partners",
        "fund_type": "H",
        "fund_strategy_level_1": "Private Equity",
        "next_close_date": "Fri May 20 2022 19:32:08 GMT-0300 (Brasilia Standard Time)",
        "spc_position": true,
        "lp_position": false,
        "mktg": "url"
      },
      {
        "id": "838b2e04-222c-42a4-86b0-0ffcc310fa3a",
        "investment_manager": "Elliott Associates",
        "fund_legal_name": "Elliott Associates, LP",
        "fund_type": "H",
        "fund_strategy_level_1": "Fund Style (Long / Short Value; Private Credit, Private Real Estate)",
        "next_close_date": "Tue Sep 06 2022 07:46:16 GMT-0300 (Brasilia Standard Time)",
        "lp_position": false,
        "spc_position": true,
        "mktg": "url"
      },
      {
        "id": "cf51ffb9-1872-4a5c-b5c0-a7aa70c67be0",
        "investment_manager": "Third Point LLC",
        "fund_legal_name": "Third Point Qualified Partners LP ",
        "fund_type": "H",
        "fund_strategy_level_1": "Multi-Srat, Long/Short Equities, Activism ",
        "next_close_date": "Thu Sep 01 2022 08:57:32 GMT-0300 (Brasilia Standard Time)",
        "lp_position": false,
        "spc_position": true,
        "mktg": "url"
      },
      {
        "id": "af9ae52f-6110-47c2-a306-325815892454",
        "investment_manager": "Davidson Kempner Capital Management",
        "fund_legal_name": "Davidson Kempner Partners",
        "fund_type": "H",
        "fund_strategy_level_1": "Activist Equity, Value Driven Credit",
        "next_close_date": "Sat Jan 22 2022 13:32:12 GMT-0300 (Brasilia Standard Time)",
        "lp_position": false,
        "spc_position": true,
        "mktg": "url"
      },
      {
        "id": "9b171aaa-cf1e-4bd2-8e34-15654138d3a5",
        "investment_manager": "CBRE",
        "fund_legal_name": "CBRE US Core Partners",
        "fund_type": "H",
        "fund_strategy_level_1": "Private Equity",
        "next_close_date": "Fri Sep 09 2022 14:01:28 GMT-0300 (Brasilia Standard Time)",
        "lp_position": false,
        "spc_position": true,
        "mktg": "url"
      },
      {
        "id": "23c16cd2-7d67-4ac6-80c4-c0dcc9962ea4",
        "investment_manager": "Elliott Associates",
        "fund_legal_name": "Elliott Associates, LP",
        "fund_type": "H",
        "fund_strategy_level_1": "Fund Style (Long / Short Value; Private Credit, Private Real Estate)",
        "next_close_date": "Thu Mar 03 2022 18:22:13 GMT-0300 (Brasilia Standard Time)",
        "lp_position": true,
        "spc_position": false,
        "mktg": "url"
      },
      {
        "id": "4b2b802f-05f4-43a1-b513-945f762d4fcc",
        "investment_manager": "Third Point LLC",
        "fund_legal_name": "Third Point Qualified Partners LP ",
        "fund_type": "H",
        "fund_strategy_level_1": "Multi-Srat, Long/Short Equities, Activism ",
        "next_close_date": "Thu May 19 2022 22:23:12 GMT-0300 (Brasilia Standard Time)",
        "lp_position": false,
        "spc_position": true,
        "mktg": "url"
      },
      {
        "id": "fe0888a8-c75c-480a-a26f-e264faf42aa7",
        "investment_manager": "Davidson Kempner Capital Management",
        "fund_legal_name": "Davidson Kempner Partners",
        "fund_type": "H",
        "fund_strategy_level_1": "Activist Equity, Value Driven Credit",
        "next_close_date": "Sat Feb 19 2022 04:51:13 GMT-0300 (Brasilia Standard Time)",
        "lp_position": false,
        "spc_position": true,
        "mktg": "url"
      },
      {
        "id": "c3db783d-f4ee-4f99-8e43-533da299e01c",
        "investment_manager": "CBRE",
        "fund_legal_name": "CBRE US Core Partners",
        "fund_type": "H",
        "fund_strategy_level_1": "Private Equity",
        "next_close_date": "Sat Feb 19 2022 04:51:13 GMT-0300 (Brasilia Standard Time)",
        "lp_position": true,
        "spc_position": false,
        "mktg": "url"
      },
      {
        "id": "86515fb6-9998-4931-8cf4-0b7a967bc505",
        "investment_manager": "Elliott Associates",
        "fund_legal_name": "Elliott Associates, LP",
        "fund_type": "H",
        "fund_strategy_level_1": "Fund Style (Long / Short Value; Private Credit, Private Real Estate)",
        "next_close_date": "Sat Feb 19 2022 04:51:13 GMT-0300 (Brasilia Standard Time)",
        "lp_position": false,
        "spc_position": true,
        "mktg": "url"
      },
      {
        "id": "2c7290f6-0b14-4f66-b686-c31a22a0cda8",
        "investment_manager": "Third Point LLC",
        "fund_legal_name": "Third Point Qualified Partners LP ",
        "fund_type": "H",
        "fund_strategy_level_1": "Multi-Srat, Long/Short Equities, Activism ",
        "next_close_date": "Sat Feb 19 2022 04:51:13 GMT-0300 (Brasilia Standard Time)",
        "lp_position": true,
        "spc_position": false,
        "mktg": "url"
      },
      {
        "id": "a3a86de0-12b8-4304-818d-59af1a4a9edb",
        "investment_manager": "Davidson Kempner Capital Management",
        "fund_legal_name": "Davidson Kempner Partners",
        "fund_type": "H",
        "fund_strategy_level_1": "Activist Equity, Value Driven Credit",
        "next_close_date": "Sat Feb 19 2022 04:51:13 GMT-0300 (Brasilia Standard Time)",
        "lp_position": true,
        "spc_position": false,
        "mktg": "url"
      },
      {
        "id": "97d53265-8165-4371-b40e-89c1125bbe58",
        "investment_manager": "CBRE",
        "fund_legal_name": "CBRE US Core Partners",
        "fund_type": "H",
        "fund_strategy_level_1": "Private Equity",
        "next_close_date": "Sat Feb 19 2022 04:51:13 GMT-0300 (Brasilia Standard Time)",
        "lp_position": true,
        "spc_position": false,
        "mktg": "url"
      }
    ]
  },
  "subscriptions": [
    {
      "id": 1
    }
  ],
  "additional": {
    "investor_id": "ec5f7fc0-5620-43e1-8327-5eb8eeccc6c7",
    "subscription_date": "2021-11-22",
    "commitments": [
      {
        "fund_id": "d62fa7cd-b9cd-45bc-8d75-5de064a0b1a6",
        "amount": 1231231231.23
      },
      {
        "fund_id": "4263ac8d-357d-4d5a-9466-dcde5fecbca6",
        "amount": 1231231231.23
      },
      {
        "fund_id": "9d24a854-cfae-45bf-8c51-d8c83f982182",
        "amount": 1231231231232.13
      }
    ],
    "subscriptionId": "1"
  }
  }
